# OBJ written from G:\Programming Project\starcrash\models\shoot.obj
# Units	meters

o Mesh
v 0.460001 2.2024 2.63479
v 0.466998 2.17235 2.64549
v 0.486089 2.15117 2.6325
v 0.502899 2.15482 2.6056
v 0.504768 2.18054 2.58505
v 0.49029 2.20897 2.58632
v 0.470366 2.21869 2.60845
v 2.995 3.41552 4.38356
v 3.002 3.38547 4.39426
v 3.02109 3.3643 4.38128
v 3.0379 3.36794 4.35438
v 3.03977 3.39366 4.33383
v 3.02529 3.42209 4.3351
v 3.00537 3.43181 4.35723
v 0.474001 2.1784 2.49279
v 0.480998 2.14835 2.50349
v 0.500089 2.12717 2.4905
v 0.516899 2.13082 2.4636
v 0.518768 2.15654 2.44305
v 0.50429 2.18497 2.44432
v 0.484366 2.19469 2.46645
v 3.009 3.39152 4.24156
v 3.016 3.36147 4.25226
v 3.03509 3.3403 4.23928
v 3.0519 3.34394 4.21238
v 3.05377 3.36966 4.19183
v 3.03929 3.39809 4.1931
v 3.01937 3.40781 4.21523
vn -0.765864 -0.366498 -0.528329
vn -0.606252 0.137762 0.783249
vn -0.205135 -0.639461 0.740952
vn 0.36911 -0.92338 0.10549
vn 0.640502 -0.507272 -0.576569
vn 0.455843 0.270037 -0.848108
vn -0.0949066 0.877089 -0.470859
vn -0.559191 0.785251 0.265869
vn 0.765866 0.3665 0.528325
vn -0.606253 0.137762 0.783249
vn -0.205135 -0.639461 0.740952
vn 0.36911 -0.92338 0.105489
vn 0.640502 -0.507272 -0.576569
vn 0.455843 0.270037 -0.848108
vn -0.0949066 0.877089 -0.470859
vn -0.559191 0.785251 0.265869
vt 0.455264 0.405255
vt 0.455264 0.31863
vt 0.387538 0.26462
vt 0.303085 0.283896
vt 0.2655 0.361942
vt 0.303085 0.439988
vt 0.387538 0.459265
vt 0.0658502 0.262117
vt 0.0658502 0.0624674
vt 0.122893 0.0624674
vt 0.122893 0.262117
vt 0.179936 0.0624674
vt 0.179936 0.262117
vt 0.236978 0.0624674
vt 0.236978 0.262117
vt 0.294021 0.0624674
vt 0.294021 0.262117
vt 0.351064 0.0624674
vt 0.351064 0.262117
vt 0.408107 0.0624674
vt 0.408107 0.262117
vt 0.46515 0.0624674
vt 0.46515 0.262117
vt 0.255614 0.405255
vt 0.187888 0.459265
vt 0.103435 0.439988
vt 0.0658502 0.361942
vt 0.103435 0.283896
vt 0.187888 0.26462
vt 0.255614 0.31863

g Default
f 1/1/1 7/2/1 6/3/1 5/4/1 4/5/1 3/6/1 2/7/1
f 8/8/2 1/9/2 2/10/2 9/11/2
f 9/11/3 2/10/3 3/12/3 10/13/3
f 10/13/4 3/12/4 4/14/4 11/15/4
f 11/15/5 4/14/5 5/16/5 12/17/5
f 12/17/6 5/16/6 6/18/6 13/19/6
f 13/19/7 6/18/7 7/20/7 14/21/7
f 14/21/8 7/20/8 1/22/8 8/23/8
f 8/24/9 9/25/9 10/26/9 11/27/9 12/28/9 13/29/9 14/30/9
f 15/1/1 21/2/1 20/3/1 19/4/1 18/5/1 17/6/1 16/7/1
f 22/8/10 15/9/10 16/10/10 23/11/10
f 23/11/11 16/10/11 17/12/11 24/13/11
f 24/13/12 17/12/12 18/14/12 25/15/12
f 25/15/13 18/14/13 19/16/13 26/17/13
f 26/17/14 19/16/14 20/18/14 27/19/14
f 27/19/15 20/18/15 21/20/15 28/21/15
f 28/21/16 21/20/16 15/22/16 22/23/16
f 22/24/9 23/25/9 24/26/9 25/27/9 26/28/9 27/29/9 28/30/9
